14 Differential gene expression (DGE) analysis | Orchestrating privacy-protected non-disclosive big data analyses of data from different resources with R and DataSHIELD
…
The differential expression analysis is then performed by:

ans.gender <- ds.limma(model =  ~ gdc_cases.demographic.gender, 
                       Set = "rse", type.data = "RNAseq", 
                       sva = FALSE)

Notice that we have set type.data='RNAseq' to consider that our data are counts obtained from a RNA-seq experiment. By indicating so, the differential analysis is performed by using voom + limma as previously mention.

The top differentially expressed genes can be visualized by:

ans.gender

$study1
# A tibble: 58,037 x 10
   id     logFC   CI.L   CI.R AveExpr     t   P.Value adj.P.Val     B
   <chr>  <dbl>  <dbl>  <dbl>   <dbl> <dbl>     <dbl>     <dbl> <dbl>
 1 ENSG~  10.9   10.5   11.3   -5.59   53.6 7.05e-191 4.09e-186  402.
 2 ENSG~  11.4   10.9   11.8   -4.35   49.4 5.93e-178 1.72e-173  376.
 3 ENSG~   9.63   9.24  10.0    0.856  47.9 5.05e-173 9.78e-169  366.
 4 ENSG~  10.2    9.76  10.6   -5.88   46.3 5.27e-168 7.65e-164  355.
 5 ENSG~  11.3   10.8   11.8   -0.226  44.7 1.29e-162 1.50e-158  344.
 6 ENSG~  11.4   10.9   11.9   -1.10   44.5 7.80e-162 7.55e-158  343.
 7 ENSG~  12.3   11.8   12.9   -0.882  44.4 1.62e-161 1.34e-157  342.
 8 ENSG~   8.66   8.27   9.05  -0.781  43.9 9.83e-160 7.13e-156  338.
 9 ENSG~  11.4   10.8   11.9    2.37   43.3 1.44e-157 9.29e-154  334.
10 ENSG~ -12.4  -12.9  -11.8   -7.71  -43.1 5.20e-157 3.02e-153  333.
# ... with 58,027 more rows, and 1 more variable: SE <dbl>
…
