15 Epigenome-wide association analysis (EWAS) | Orchestrating non-disclosive big data analyses of data from different resources with R and DataSHIELD
…
Then, the last step is to meta-analyze the results. Different methods can be used to this end. We have implemented a method that meta-analyze the p-pvalues of each study as follows:

ans.meta <- metaPvalues(ans.limma)
ans.meta

# A tibble: 481,868 x 4
   id                study1      study2   p.meta
   <chr>              <dbl>       <dbl>    <dbl>
 1 cg13138089 0.00000000190 0.00000763  4.78e-13
 2 cg25317941 0.0000000179  0.00000196  1.12e-12
 3 cg02812891 0.00000000731 0.00000707  1.63e-12
 4 cg12706938 0.00000000425 0.0000161   2.14e-12
 5 cg16026647 0.000000101   0.000000797 2.51e-12
 6 cg12695465 0.00000000985 0.0000144   4.33e-12
 7 cg21171625 0.000000146   0.00000225  9.78e-12
 8 cg13772815 0.00000000327 0.000122    1.18e-11
 9 cg00228891 0.000000166   0.00000283  1.38e-11
10 cg21488617 0.0000000186  0.0000299   1.62e-11
# ... with 481,858 more rows
…
Here In some cases inflation can be observed, so that, correction for cell-type or surrogate variables must be performed. We describe how we can do that in the next two sections.

15.3 Adjusting for Surrogate Variables

The vast majority of omic studies require to control for unwanted variability. The surrogate variable analysis (SVA) can address this issue by estimating some hidden covariates that capture differences across individuals due to some artifacts such as batch effects or sample quality sam among others. The method is implemented in SVA package.

Performing this type of analysis using the ds.lmFeature function is not allowed since estimating SVA would require to implement a non-disclosive method that computes SVA from the different servers. This will be a future topic of the dsOmicsClient. NOTE that, estimating SVA separately at each server would not be a good idea since the aim of SVA is to capture differences mainly due to experimental issues among ALL individuals. What we can do instead is to use the ds.limma function to perform the analyses adjusted for SVA at each study.

ans.sva <- ds.limma(model = ~ diagnosis + Sex, 
                    Set = "methy",
                    sva = TRUE, annotCols = c("CHR", "UCSC_RefGene_Name"))
ans.sva

$study1
# A tibble: 481,868 x 12
   id    CHR   UCSC_RefGene_Na~   logFC    CI.L    CI.R AveExpr     t
   <chr> <chr> <chr>              <dbl>   <dbl>   <dbl>   <dbl> <dbl>
 1 cg10~ 19    "GNG7"           -0.0547 -0.0721 -0.0373   0.338 -6.25
 2 cg13~ 17    ""               -0.0569 -0.0757 -0.0381   0.437 -6.00
 3 cg11~ 19    "PODNL1;PODNL1;~  0.0334  0.0223  0.0445   0.568  5.97
 4 cg27~ 17    "SLC47A2;SLC47A~  0.0274  0.0182  0.0365   0.548  5.95
 5 cg21~ 6     ""               -0.0453 -0.0609 -0.0297   0.799 -5.78
 6 cg23~ 2     "MTA3"           -0.0327 -0.0440 -0.0215   0.200 -5.77
 7 cg10~ 16    "SALL1;SALL1"     0.0366  0.0240  0.0492   0.137  5.77
 8 cg24~ 1     ""                0.0317  0.0208  0.0427   0.821  5.76
 9 cg13~ 9     ""               -0.0326 -0.0440 -0.0213   0.367 -5.72
10 cg13~ 2     "ECEL1P2"        -0.106  -0.144  -0.0686   0.380 -5.61
# ... with 481,858 more rows, and 4 more variables: P.Value <dbl>,
#   adj.P.Val <dbl>, B <dbl>, SE <dbl>

$study2
# A tibble: 481,868 x 12
   id    CHR   UCSC_RefGene_Na~   logFC    CI.L    CI.R AveExpr     t
   <chr> <chr> <chr>              <dbl>   <dbl>   <dbl>   <dbl> <dbl>
 1 cg16~ 12    "LRP1"           -0.0418 -0.0548 -0.0289   0.388 -6.42
 2 cg25~ 1     ""               -0.0664 -0.0874 -0.0453   0.569 -6.27
 3 cg12~ 11    "NRXN2;NRXN2"    -0.0273 -0.0367 -0.0179   0.728 -5.81
 4 cg07~ 3     ""               -0.0393 -0.0529 -0.0258   0.160 -5.78
 5 cg07~ 6     "MUC21"          -0.0427 -0.0579 -0.0276   0.776 -5.61
 6 cg00~ 1     "CR1L"           -0.0568 -0.0771 -0.0365   0.350 -5.56
 7 cg11~ 12    "CNTN1;CNTN1"    -0.0443 -0.0601 -0.0284   0.152 -5.56
 8 cg03~ 7     "PGAM2;PGAM2"    -0.0442 -0.0600 -0.0283   0.211 -5.56
 9 cg07~ 1     "KCNAB2;KCNAB2"   0.0611  0.0392  0.0831   0.659  5.54
10 cg25~ 17    "WNK4"           -0.0392 -0.0533 -0.0251   0.512 -5.52
# ... with 481,858 more rows, and 4 more variables: P.Value <dbl>,
#   adj.P.Val <dbl>, B <dbl>, SE <dbl>

attr(,"class")
[1] "dsLimma" "list"   

Then, data can be combined meta-anlyzed as follows:

ans.meta.sv <- metaPvalues(ans.sva)
ans.meta.sv

# A tibble: 481,868 x 4
   id               study1      study2   p.meta
   <chr>             <dbl>       <dbl>    <dbl>
 1 cg00228891 0.00000397   0.000000318 3.58e-11
 2 cg01301319 0.00000609   0.00000123  2.00e-10
 3 cg22962123 0.00000106   0.00000767  2.17e-10
 4 cg24302412 0.0000139    0.000000762 2.77e-10
 5 cg02812891 0.000000408  0.0000327   3.47e-10
 6 cg23859635 0.000000109  0.000190    5.29e-10
 7 cg13138089 0.000000215  0.000105    5.74e-10
 8 cg24938077 0.0000125    0.00000254  8.02e-10
 9 cg13772815 0.0000000391 0.00132     1.27e- 9
10 cg21212881 0.000000340  0.000248    2.04e- 9
# ... with 481,858 more rows
…
