16 Genome-wide association analyses (GWAS) | Orchestrating privacy-protected non-disclosive big data analyses of data from different resources with R and DataSHIELD
…
The HWE test can be performed to selected chromosomes using the argument chromosomes, only the autosomes can be selected when performing a HWE test, the encoding of the autosomes can be fetched with

ds.getChromosomeNames("gds.Data")$autosomes

NULL

Therefore, HWE can be performed by:

ds.exactHWE("gds.Data", sexcol = "gender", male = "1", female = "2", chromosome = "22")

$study1
# A tibble: 1,581 x 9
   snpID chr   nAA   nAB   nBB   MAF      minor.allele f        pval    
   <int> <chr> <chr> <chr> <chr> <chr>    <chr>        <chr>    <chr>   
 1 95140 22    531   1082  640   0.47581~ A            0.03724~ 0.07623~
 2 95141 22    580   1092  590   0.49778~ A            0.03446~ 0.10111~
 3 95142 22    0     333   1951  0.07289~ A            -0.0786~ 3.29321~
 4 95143 22    0     225   2080  0.04880~ A            -0.0513~ 0.00571~
 5 95144 22    176   831   1249  0.26218~ A            0.04792~ 0.02555~
 6 95145 22    249   1003  1055  0.32531~ A            0.00958~ 0.63560~
 7 95146 22    55    516   1738  0.13555~ A            0.04646~ 0.03251~
 8 95147 22    203   929   1164  0.29072~ A            0.01888~ 0.36263~
 9 95148 22    291   1035  985   0.34984~ A            0.01549~ 0.46440~
10 95149 22    11    276   2013  0.06478~ A            0.00966~ 0.60484~
# ... with 1,571 more rows

attr(,"class")
[1] "dsexactHWE" "list"      

Similarly, allele frequencies estimates can be estimated by:

ds.alleleFrequency("gds.Data", sexcol = "gender", male = "1", female = "2")

$study1
# A tibble: 99,289 x 7
          M       F      all   n.M   n.F     n      MAF
      <dbl>   <dbl>    <dbl> <dbl> <dbl> <dbl>    <dbl>
 1 0.015    0.0147  0.0149    1200  1086  2286 0.0149  
 2 0.000837 0.00276 0.00175   1195  1087  2282 0.00175 
 3 0.00330  0.00548 0.00433   1212  1095  2307 0.00433 
 4 0.0124   0.00868 0.0106    1213  1095  2308 0.0106  
 5 0.00165  0       0.000866  1214  1095  2309 0.000866
 6 0.0712   0.0754  0.0732    1208  1094  2302 0.0732  
 7 0.00660  0.00913 0.00780   1213  1095  2308 0.00780 
 8 0.00248  0.00274 0.00261   1209  1093  2302 0.00261 
 9 0.182    0.181   0.181     1188  1071  2259 0.181   
10 0.00165  0       0.000868  1210  1094  2304 0.000868
# ... with 99,279 more rows
…
