9 Secure shell programs: GWAS with PLINK | Orchestrating non-disclosive big data analyses of data from different resources with R and DataSHIELD
…
The results can be retrieve as an R object

outs <- client$exec('ls', tempDir)$output
outs

[1] "out.frq" "out.hh"  "out.log" "out.nof"

client$downloadFile(paste0(tempDir, '/out.frq'))  

NULL

ans <- readr::read_table("out.frq")
ans

# A tibble: 100,000 x 6
     CHR SNP         A1    A2         MAF NCHROBS
   <dbl> <chr>       <chr> <chr>    <dbl>   <dbl>
 1     0 MitoC3993T  T     C     0.0149      4572
 2     0 MitoG4821A  A     G     0.00175     4564
 3     0 MitoG6027A  A     G     0.00434     4614
 4     0 MitoT6153C  C     T     0.0106      4616
 5     0 MitoC7275T  T     C     0.000866    4618
 6     0 MitoT9699C  C     T     0.0732      4604
 7     0 MitoA10045G G     A     0.00780     4616
 8     0 MitoG10311A A     G     0.00261     4604
 9     0 MitoA11252G G     A     0.182       4518
10     0 MitoT11900C C     T     0.000868    4608
# … with 99,990 more rows
…
